<svg width="548" height="167" viewBox="0 0 548 167" fill="none" xmlns="http://www.w3.org/2000/svg">
<path d="M214.582 88.0639C214.582 75.9854 218.237 65.9876 225.548 58.0705C232.96 50.052 242.301 46.0427 253.571 46.0427C265.755 46.0427 275.248 49.849 282.051 57.4615C288.853 64.9726 292.255 75.3256 292.255 88.5207C292.255 90.5507 292.204 92.0732 292.103 93.0882H236.056C236.259 98.4677 238.29 102.883 242.148 106.334C246.007 109.684 250.88 111.358 256.769 111.358C265.196 111.358 271.644 108.11 276.111 101.614L289.97 112.12C287.737 116.18 283.777 120.138 278.091 123.995C272.405 127.751 265.196 129.628 256.464 129.628C243.874 129.628 233.721 125.771 226.005 118.057C218.39 110.242 214.582 100.244 214.582 88.0639ZM236.665 79.3856H270.933C270.73 74.5136 269.055 70.6058 265.907 67.6623C262.759 64.7188 258.749 63.2471 253.875 63.2471C249.002 63.2471 245.042 64.7696 241.996 67.8146C238.95 70.8596 237.173 74.7166 236.665 79.3856Z" fill="#143233"/>
<path d="M378.09 17.5718V127.649H358.291V119.428C357.276 120.747 355.905 122.067 354.179 123.386C352.554 124.706 349.915 126.076 346.259 127.497C342.604 128.918 338.746 129.628 334.685 129.628C323.211 129.628 313.819 125.771 306.509 118.057C299.3 110.242 295.696 100.193 295.696 87.9117C295.696 75.5286 299.148 65.4801 306.052 57.766C312.956 49.9505 322.094 46.0427 333.466 46.0427C339.457 46.0427 344.482 47.21 348.544 49.5445C352.605 51.879 355.448 54.1628 357.073 56.3958V17.5718H378.09ZM357.682 88.0639C357.682 80.7559 355.753 75.0211 351.894 70.8596C348.138 66.6981 343.264 64.6173 337.274 64.6173C331.182 64.6173 326.257 66.7996 322.501 71.1641C318.744 75.5286 316.865 81.1619 316.865 88.0639C316.865 95.0675 318.744 100.65 322.501 104.812C326.359 108.973 331.283 111.054 337.274 111.054C343.467 111.054 348.392 108.872 352.047 104.507C355.803 100.041 357.682 94.56 357.682 88.0639Z" fill="#143233"/>
<path d="M390.749 127.649V48.022H411.766V127.649H390.749ZM392.424 37.5167C390.089 35.1822 388.921 32.2894 388.921 28.8384C388.921 25.3873 390.089 22.5453 392.424 20.3123C394.759 17.9778 397.653 16.8105 401.105 16.8105C404.659 16.8105 407.603 17.9778 409.938 20.3123C412.274 22.5453 413.441 25.3873 413.441 28.8384C413.441 32.2894 412.274 35.1822 409.938 37.5167C407.603 39.7497 404.659 40.8662 401.105 40.8662C397.653 40.8662 394.759 39.7497 392.424 37.5167Z" fill="#143233"/>
<path d="M428.225 127.649V65.0741H419.696V48.022H428.225V45.1292C428.225 35.4866 430.966 28.4831 436.449 24.1186C441.932 19.7541 448.989 17.5718 457.619 17.5718C460.157 17.5718 462.442 17.6733 464.472 17.8763V35.5374L462.949 35.3852C461.934 35.2836 461.071 35.2329 460.36 35.2329C452.948 35.2329 449.242 38.6839 449.242 45.586V48.022H463.102V65.0741H449.242V127.649H428.225Z" fill="#143233"/>
<path d="M507.336 154.902H487.233L498.351 125.67L467.738 48.022H490.279L508.098 99.9395L526.069 48.022H548L507.336 154.902Z" fill="#143233"/>
<rect x="87.564" y="82.454" width="85.6823" height="83.7783" rx="2" fill="#1A4243"/>
<mask id="mask0" mask-type="alpha" maskUnits="userSpaceOnUse" x="87" y="82" width="87" height="85">
<rect x="87.5791" y="82.4763" width="85.6823" height="83.7783" rx="2" fill="#35748E"/>
</mask>
<g mask="url(#mask0)">
<path d="M88.1067 82.09H173.246V166.646L88.1067 82.09Z" fill="#143233"/>
</g>
<path d="M79.8793 162.436V85.3888C79.8793 81.9345 75.6497 80.2647 73.29 82.7876L1.22732 159.835C-1.04848 162.268 0.676892 166.244 4.00853 166.244H76.0712C78.1744 166.244 79.8793 164.539 79.8793 162.436Z" fill="#143233"/>
<path d="M84.8288 0.842592L1.42664 68.0316C-1.37224 70.2863 0.22335 74.8069 3.81748 74.8052L169.419 74.7262C172.999 74.7245 174.598 70.2322 171.825 67.9682L89.6262 0.858266C88.2318 -0.280178 86.2306 -0.28672 84.8288 0.842592Z" fill="#143233"/>
</svg>
